{
  "CONTRIBUTE": {
    "name": "How can I contribute to PCMRBot?",
    "text": "PCMRBot as a whole is closed source.  However, these commands are open source.\n\nhttps://gitlab.com/pcmasterrace/discord/pcmr-discord-bot-commands",
    "image": "https://gitlab.com/pcmasterrace/discord/pcmr-discord-bot-commands/-/raw/master/command_images/contribution.png"
  },
  "JUSTASK": {
    "name": "Just ask your question!",
    "text": "Someone who is idling on the channel and only every now and then glances what's going on is unlikely to answer to your \"asking to ask\" question, but your actual problem description may pique their interest and get them to answer.\n\nSee also: Nerd Sniping <http://sol.gfxile.net/dontask.html>",
    "aliases": ["dontask","ask"]
  },
  "WHATSDDR": {
    "name": "Why is my RAM showing a really low number?",
    "text": "Your memory is reporting at half its speed due to how software can interpret the Double Data Rate memory. This is commonly seen with multiple sticks of memory as the frequency is 'split' between the sticks.\n\nAn example is your software showing the speed at 1066Mhz. Multiply this by 2 and you will see your memory is at 2133Mhz.\n\nWith common XMP speeds such as 3200Mhz, you would see 1600Mhz reported.\n\nYou can run `wmic memorychip get speed` in the Command Prompt to see the full reported speed vs. the adjusted speed.\n",
    "aliases": ["what'sddr","whatisddr"]
  },
  "2KRES": {
    "name": "What is 2K resolution?",
    "text": "Contrary to popular belief, 2K resolution is 2048x1080, and NOT 2560x1440. When you are referring to 2560x1440, please use either \"1440p\" or \"2.5k\" and not \"2K\".",
    "aliases": ["twok"]
  },
  "DDUHOW": {
    "name": "Display Driver Uninstaller",
    "text": "DDU allows you to **fully** remove GPU and audio drivers from your system beyond what the first-party tools will do. This helps the troubleshooting process greatly.\nDownload DDU from Wagrandsoft and download the latest driver for your GPU from Nvidia, AMD, or Intel from their respective download pages. Do not start DDU yet.\nStart Windows into Safe mode. To boot into safe mode, click on the start menu, click the power icon, hold shift and keep holding it, and then click restart. You should arrive at a blue screen with multiple options. Click on \"Troubleshoot,\" \"Advanced Options,\" \"Startup Settings,\" and click on \"Restart.\" Once you have rebooted into safe mode, run DDU and click on clean, then install the driver you downloaded earlier, and finally restart.\n\nYou can download DDU here: <https://www.guru3d.com/files-details/display-driver-uninstaller-download.html#menu4>\nSimply scroll down to the bottom and click on a Download Mirror close to you.\n\nIntel GPU Drivers can be downloaded at <https://downloadcenter.intel.com/product/80939/Graphics>\nNVIDIA GPU Drivers can be downloaded at <https://www.nvidia.com/Download/index.aspx>\nAMD GPU Drivers can be downloaded at <https://www.amd.com/en/support>\n",
    "aliases": ["ddu"]
  },
  "STORAGEBASE": {
    "name": "Why is my 1TB drive less than 1TB?",
    "text": "The reason you see a \"lower\" amount of storage on your drive that you paid for is due to different unit bases used between humans and computers. Using a 1 Terabyte drive as an example, 1 Terabyte is 1000Gigabytes. Storage is sold using base-ten storage, which has the common denotations we are used to, such as Kilo, Mega, Giga, and Tera. Computers use base-two, which uses Kibi, Mebi, Gibi, and Tebi.\n\nA similar real-world scenario is US Ton vs. Metric Ton, where a Metric Ton is only about 90% of a US Ton.\n\n```1 Terabyte = 1000^4 bytes = 1,000,000,000,000 bytes\n1 Tebibyte = 1024^4 bytes = 1,099,511,627,776 bytes```",
    "desc": "",
    "aliases": []
  },
  "WHATSM2": {
    "name": "Whats M.2?",
    "text": "The M.2 interface is a multi-use interface commonly used for storage and wireless devices. In the case of storage, the SATA and NVMe protocols are both often seen used on the interface, but not every M.2 slot supports both. With SSD's, the SATA \"key\" is commonly referred to as \"B\" or \"B+M\" and NVMe using the \"M\" key.  Some systems may only support one over all of their slots, both, or a combination. In some cases, the motherboard may reallocate resources, such as SATA ports, to the m.2 slot, effectively disabling SATA ports in favor of your M.2 SSD. The best way to know what the system supports and how it handles allocation is to refer to documentation, such as your manual.\n\nMake sure to check if your system is compatible with the specific protocol and form factor of SSD before using or purchasing.",
    "desc": "",
    "aliases": ["whatism2"]
  },
  "NVMESATA": {
    "name": "What is the difference between NVME and SATA protocols?",
    "text": "\"SATA and NVMe are the two primary storage protocols seen in SSD's today. There are differences in how data is moved and processed, but the more notable difference is the overall bandwidth and the IOPS (Input-Output operations Per Second).\nWith SATA, it is reasonable to see 500MB/s  read and write, while on NVMe speeds up to 5GB/s read and write with more than three times the IOPS as traditional SATA SSD's.\n\nHowever, while this sounds like a great reason to use NVMe over SATA, the performance gains are not visible to the vast majority of consumer applications like the Windows operating system, Microsoft Office, and games as compared to the transition from spinning media to solid-state.\n\nThe small \"real-world\" difference is due to the already optimized loading of the applications, but also due to other system processes having to operate on the data received. There are cases where the NVMe vs. SATA difference is very well received, such as life sciences, financial computing, database and video caching, and large virtualized environments used in enterprise offices.\n\nMake sure to check if your system is compatible with the specific protocol and form factor of SSD before using or purchasing.\n",
    "desc": "",
    "aliases": ["satanvme"]
  },
  "GPTMBR": {
    "name": "GPTMBR",
    "text": "GPT and MBR are both ways that partitions are stored and catalogued on drives. At a high level, there are a few keys differences. MBR is limited to 2TB per drive, four partitions, and is used by older operating systems and BIOSes. GPT is the \"upgraded MBR\" in which there is a maximum of one billion terabytes per drive, 128 partitions, and is only usable by more modern operating systems and UEFI's. Today, unless you have a system from before 2010, use GPT as it is the newer standard to use.\n\nTL;DR: Just use GPT.",
    "desc": "",
    "aliases": ["mbrgpt"]
  },
  "BESTHELP": {
    "name": "What can you provide to get the best and fastest help?",
    "text": "When asking for help, it is crucial to provide details on your issue.\n\n**Have these details in a SINGLE message**\n\nThose helping are more likely to help when they have details to utilize.\n\nExamples of details include:\n\\* The specific item you are having trouble and everything you have tried to resolve it.\n\\* If its a pc, then list all the components and OS (and its version number).\n\\* How long has the issue been occurring or the number of occurrences.\n\\* If there are any error codes or error messages, list all of them.\n\\* If it is a networking or internet issue, list the equipment you are using.\n\\* If it is a Windows Blue Screen of Death or crash, list all of the error codes, any overclocks, XMP/DOCP settings, and any recent system changes.\n\nIf this is a lot of information, consider posting to <https://reddit.com/r/pcmasterrace> and linking the post here.",
    "desc": "",
    "aliases": ["bh"]
  },
  "WINDOWSDRIVE": {
    "name": "How do I add a new drive in Windows?",
    "text": "In the Start Menu, search for \"Disk Management\" and open it. At the bottom of the window, scroll till you see a black bar and right-click on the bar. Select \"New Simple Volume\" and follow the wizard keeping all options as they are. When you get to the option for MBR vs. GPT, select GPT unless its a system from 2011 or earlier. For the option after about the drive letter, choose any letter you would like that hasn't already been used. ",
    "desc": "",
    "aliases": []
  },
  "CMOSCLEAR": {
    "name": "How do I clear my CMOS?",
    "text": "1. Power off your system, if it is on, and unplug your system from the wall.\n2. Open your system and locate the watch battery on your motherboard. It may be located under your GPU. If this is the case, remove your GPU to get to the CMOS battery.\n3. Remove the battery.\n4. Hold the power button for 15 seconds to discharge any remaining power in your system.\n5. Reinsert the watch battery, and the GPU if you removed it.\n6. Plug your system back into the wall and turn it on.\n\nNote: Your motherboard manual will have specific instructions on how to clear your CMOS. You can find your manual online on the same product page under \"Manuals.\"\n",
    "desc": "",
    "aliases": ["clearcmos"]
  },
  "BIOSUPDATE": {
    "name": "How do I update my BIOS?",
    "text": "DISCLAIMER: You are responsible for making sure that you use the correct files and that you do not attempt to flash your bios during a thunderstorm or situation that can cause a power outage.\n\nTo update your bios, go to your motherboard's product page and go to the downloads or support section. Here you will find a variety of downloads, including BIOS files. Note, these files might be listed as an item under \"All\" operating systems. Download the latest version, and be sure to check for a required sequence of updates on some boards. Extract the downloaded zip file onto a USB stick formatted as FAT32. Boot into your bios and select the flashing utility in your bios. Within the utility, choose the bios file from your flash drive and start the flashing process.\n\nNote: Your motherboard manual will have specific instructions on how to update your BIOS. You can find your manual online on the same product page under \"Manuals.\"\n",
    "desc": "",
    "aliases": []
  },
  "XMP": {
    "name": "What is X.M.P.?",
    "text": "Extreme Memory Profile or XMP is a system developed by Intel to running memory at higher than stock speeds without the need to mess around with manual overclocking. Profiles are stored in a small chip on the DIMMs, and motherboards can read from the chip. From there, you can set your memory to higher than stock speeds.\n\nTo do this, boot into your BIOS and look for settings regarding XMP, AXMP, or DOCP. These are the settings where you will select the XMP profile you wish to use. Commonly they can be found on the main BIOS page, or maybe hidden under overclocking, advanced, or \"AI Tweaker\" tabs within the bios.\n\nNOTE: While XMP is generally a stable platform, it is still considered an overclock and may not be 100% stable. XMP profiles are tuned for Intel-based systems and have a higher chance of instability on AMD Ryzen systems.\n",
    "desc": "",
    "aliases": ["docp"]
  },
  "DDRJEDEC": {
    "name": "What is JEDEC",
    "text": "With DDR4 systems, you may notice that on your first boot that your memory is running at 2133, 2400 Mhz, 2666 Mhz, or even 2933Mhz on with some cpus, when you have higher frequency memory, such as 3200Mhz. This is due to what's known as the \"JEDEC Standard.\"  This standard is made so that your system will turn on and function with fewer issues. If your memory were to operate at its full speed on first boot, then it could lead to diagnostic headaches due to a system not working well with the high-speed memory. To get your memory to its full speed, use your memory's XMP profile(s).\n",
    "desc": "",
    "aliases": []
  },
  "SCREENSHOT": {
    "name": "*Use the proper tools to take screenshots...*",
    "text": "When taking screenshots, it is best practice, for clarity and privacy reasons, to take a screenshot of the active window only.\nTo do this in Windows, use the key combination \"Alt+PrintScreen\" with the window selected, then in Discord, press \"Ctrl+V.\"\n\nTo do this on macOS, use the key combination \"Command+Control+Shift+4\" with the window selected and then press the space bar. Then in Discord, press \"Command+V\" to paste the screenshot.\n\nTo do this in most Linux distributions, use the key combination \"Alt+PrintScreen\" with the window selected, then in Discord, press \"Ctrl+V.\"\n\nPlease see <https://take-a-screenshot.org> for more information.\n",
    "desc": "",
    "aliases": []
  },
  "SMART": {
    "name": "What is SMART data and how do I get it?",
    "text": "S.M.A.R.T. (Self Monitoring and Reporting Technology) data is the diagnostic data produced by modern drives. This metric is a suitable means to determine the 'health' of a drive but only will report issues once the drive is detected. Five values are signs that a drive is on its way to failing, which is 5,187,188,197,198 [1].\nThe values to look at for accurate numbers are the raw values to avoid any confusion with how drive manufacturers handle their thresholds.\nThe S.M.A.R.T. data can be viewed with CrystalDisk**Info** on Windows and smartctl in Linux.\nIn any case, it is essential to have backups of important data on a separate system or service in the off-chance a drive dies.\n\nCrystalDiskInfo: <https://crystalmark.info/redirect.php?product=CrystalDiskInfo>\n\n[1]:<https://www.backblaze.com/blog-smart-stats-2014-8.html>\n",
    "desc": "",
    "aliases": []
  },
  "WIC": {
    "name": "Windows Integrity Checks",
    "text": "The Windows operating system has two main integrity checks to make sure that the files for Windows itself are in a stable state.\n\n`sfc /scannow`\nRuns a System File Check to see if the Windows files, including DLLs, have any issues. If it finds any problems, it will attempt to fix the problem, but may not always succeed.\n\n`DISM /Online /Cleanup-Image /ScanHealth`\nThe DISM command above is another health check for Windows to act as a second opinion to find further problems. Cleanup-Image tells DISM to be very strict with the process while it scans the system files.\n\n`chkdsk C: /f /r`\nThe chkdsk command runs a basic check on the selected disk, in this case `C:`, locates bad sectors and tries to recover readable information, `/r`, and attempts to fix the errors,`/f`.\n\n**All three scans need to be done from either a recovery command prompt or an admin command prompt.**\n",
    "desc": "",
    "aliases": ["sfc","dism"]
  },
  "WINDOWSREINSTALL": {
    "name": "How to reinstall or install Windows 10.",
    "text": "In some cases, you may need to reinstall the Windows operating system for a variety of reasons. This can be to quickly fix or troubleshoot an issue, remove malware effectively, etc.\n\nYou will need a USB drive with at least 8GB of capacity and a working computer.\n\nGo to <https://www.microsoft.com/en-us/software-download/windows10> to download the Windows 10 Media Creation Tool.\n\nThe instructions for creating the bootable install media will be under the tab, starting with \"Using the tool to create installation media...\" and contains further instructions on how to install Windows.\n",
    "desc": "",
    "aliases": ["windowsinstall","reinstallwindows"]
  },
  "RANDOMRESTART": {
    "name": "What can you provide to get the best and fastest help with a crashing or restarting computer?",
    "text": "If your system is restarting randomly or is just crashing, it is best to provide as many accurate details as possible to receive the quickest and most effective help.\n\n**Have these details in a SINGLE message**\n\nInclude **all** of the following details:\n \\* The model of computer or a list of the parts used in the computer and the age of the afflicted system\n \\* Any and all overclocks, XMP/DOCP/AXMP profiles used.\n \\* The frequency your memory is currently running at.\n \\* The maximum temperature of system components under load, not idle.\n \\* Any errors and Blue Screens of Death you are recieving.\n \\* Any patterns during the random restarts including the frequency of the restarts and how long the issue has been occurring.\n \\* List everything you have tried to resolve your issue.\n\nIf this is a lot of information, consider posting to <https://reddit.com/r/pcmasterrace> and linking the post here.\n\nSome of the more common reasons for \"random\" restarts is due to instability in overclocks, which includes XMP/DOCP/AXMP, high temperatures on processors, failed hardware, bugs in an OS, or an issue with the electrical supply.\n\n**The details you provide from above will help narrow down the source of your issue and provide quicker support.**\n",
    "desc": "",
    "aliases": ["rr"]
  },
  "WEIRDDOWNLOAD": {
    "name": "Why is my download speed slow?",
    "text": "Internet Service Providers(ISPs), rate the connection they sell you in a number of bits per second.  The speed rating will be listed similarly to 200Mbps, or 200 Megabits per second.\n\nGame downloads, such as those in Steam and Uplay, count in Bytes per second.  An example is 25MBps or 25 MegaBytes per second.\n\nNotice the capitalization difference between Megabits ( Mb ) and MegaBytes ( MB ).  Megabits are 1/8th the size of a MegaByte, so your maximum speed in Steam will report as 1/8th of the Mbps that your ISP is selling you.  Services like Speedtest.net read in Mbps, so this should more accurately reflect your ISP's speed. The server from which you are downloading can be physcially farther away, reducing the maximum possible download speed.\n\nThis unit conversion is similar to buying 3 feet of fabric and receiving 1 yard. In the end, it is the same amount of data, fabric in this case, but different units of measurement.\n",
    "desc": "",
    "aliases": ["slowdownload"]
  },
  "RTFM": {
    "name": "Read the manual!!!",
    "text": "Manuals contain valuable information about the specifics of your system. Motherboard manuals, in particular, will tell you:\n \\* Important information regarding compatible CPUs and RAM\n \\* The correct memory slots to populate based on the number of modules\n \\* A detailed layout of your motherboard\n \\* Instructions for clearing your CMOS/BIOS\n \\* Explanations for settings and options\n \\* If you no longer have your manual, you can find it on the manufacturer website, in the support page of your specific motherboard model.\n",
    "desc": "",
    "aliases": ["readmanual"]
  },
  "SUPPORTCHANNELS": {
    "name": "Each of the different support channels has a purpose.",
    "text": "Each of the support channels has a different purpose:\n\n<#497150397358800908> is for selecting components, systems, and accessories.\n<#96028420848230400> is for fixing things and guidance on setting up more complex items like networking.\n<#500820755391709194> is for support for, well, overclocking. It is also for underclocking and undervolting.\n<#135645254014468096> is for the discussion and learning of how to control computers.\n<#213077219424206858> is for discussion and support of linux related topics.\n<#213077236683636736> is for discussion and support of apple and mac-os related topics.\n\n<#750325966936473600> is for discussing hardware while not needing help. While this is not specifically a support channel, it is related.",
    "desc": "",
    "aliases": ["sc"]
  },
  "GREYMARKET": {
    "name": "What are grey market keys?",
    "text": "Grey market keys are keys with no determined origin, and are not being sold directly from the developer to the retailer listing the key. The seller may have come into possession of the keys in an illegitimate manner. For Windows, this may be abuse of volume licenses (such as a large business) or a keygen. For games, these licenses may be sourced with a stolen credit card and sold cheaply to launder money. They have risks such as the license potentially being revoked. This can also lead to financial losses for a developer if they have to provide customer service to an angry customer whose game or OS license was revoked.\n\n<https://www.polygon.com/2020/5/20/21265275/g2a-confirms-it-sold-stolen-game-keys>\n\nPlease use keys from authorized retailers, such as the retailers listed on isthereanydeal.com or a known legitimate retailer for Windows.\n",
    "desc": "",
    "aliases": ["greykey","greykeys","graymarket","graykey","graykeys"]
  },
  "DISK100": {
    "name": "Why is my boot disk usage showing 100%?",
    "text": "Many times you will see 100% disk usage when your antivirus is running a scan or windows is doing something in the background. The reason it takes a significant amount of time and bogs down the system is mostly due to the random read speeds of a hard drive, as well as a bit of the sequential. Defragmenting your drive can help reduce this issue a little bit, but it won't help much. The 100% is also the amount of time the disk is actively doing something, so when you see chrome or so, fetching only using a small portion of the hard drives full data rate, then it's likely reading random files it needs or writing a slow download.\n\nThis is mitigated in Windows 10 Version 2004, but not fully fixed.\n",
    "desc": "",
    "aliases": []
  },
  "NETWORKHELP": {
    "name": "What can you provide to get the best and fastest help with a networking related issue?",
    "text": "If you are having networking issues, it is best to provide as many accurate details as possible to recieve the quickest and most effective help.\n\n**Have these details in a SINGLE message**\n\nInclude **all** of the following details:\n \\* The model of computer or a list of the parts used in the computer/device and the age of the afflicted system\n \\* A list of all networking gear you are using including model numbers. (Router, Modem/Gateway, Switches, Wireless Adapters, Network Cards)\n \\* If you are using any powerline or MoCa Adapters.\n \\* If it is only a single device with the issue or many on the network.\n \\* Any errors you are receiving.\n \\* If the issue is with your **internet**, list your ISP, connection type (Fibre, Cable, Microwave, DSL), and the plan you pay for.\n \\* If the issue is with a **wireless network**, list the frequency you are running on, the wireless network adapters used, where the adapters are plugged into, and any extenders, repeaters, or access points used.\n \\* If the issue is with a **specific service or application**, then provide the name of that service/application and any associated configurations.\n \\* Any patterns (such as time, activity, usage, etc) associated with the issue.\n \\* List any other details you find may be relevant or beneficial to diagnosing your issue.\n \\* **List everything you have tried to resolve your issue**.\n\nIf this is a lot of information, consider posting to <https://reddit.com/r/pcmasterrace> and linking the post here.\n\n**The details you provide from above will help narrow down the source of your issue and provide quicker support.**\n",
    "desc": "",
    "aliases": ["nhelp"]
  },
  "CANIHAVEROLE": {
    "name": "Who are the Trusted Techies and Official Builders? Can you have the role?",
    "text": "The \"Trusted Techies\" are individuals who have shown committed, quality support and represented the ideas and purpose for the tech-support channel.\nThe \"Official Builders\" are those who contribute to the \"builds\" page on the subreddit and PCMR website.\n\nThe staff members and others with the role chose them for the reasons mentioned.\n\nTL;DR, they know what they are doing and don't ask for the role, it is earned, not asked for.\n",
    "desc": "",
    "aliases": ["cihr","trustedtechies","officialbuilders","tt","trusted"]
  },
  "EVENTVIEW": {
    "name": "What is the event viewer?",
    "text": "Event Viewer is the central location for logging within Windows. There are two primary areas for logging, \"Windows Logs\" and \"Applications and Services Logs.\"\n\"Windows Logs\" contains the logs for the Windows OS and System.\n\\* Application contains logs related to Windows' System Components and System Drivers and Libraries.\n\\* Security contains logs related to the login and logouts to a system by all users including hidden ones and resource access,\n\\* System contains logs about the system, including hardware, kernel panics, updates, and other parts of the Windows OS and Kernel.\n\n\"Applications and Services Logs\" contains logs for the services and apps running and installed on the system.\nThe top-level folder in these logs is the general organization of the logs, typically the broad name like Microsoft. Using Microsoft's log as an example, as you explore deeper into the folders, it goes into individual services and applications such as \"Windows Defender\", where you can find more details about detection and activities of Windows Defender, or \"MSPaint\" which shows the logs involved in Microsoft Paint.\n\nFurther details can be found at: <https://www.howtogeek.com/123646/htg-explains-what-the-windows-event-viewer-is-and-how-you-can-use-it/>",
    "desc": "",
    "aliases": ["evernvwr"]
  },
  "PORTFORWARD": {
    "name": "What is port forwarding and how do I do it?",
    "text": "\nPort forwarding is the process of redirecting network traffic from one networking port on a device to another. This is typically done for hosting servers, peering applications, or other applications that do not handle NAT-based networking optimally like VoIP. In a home, this would be done to host a website on your local computer and have it hosted on your connection by forwarding your computer's port 8080 to your public-facing router's port 443 as an example.\n\nAn analogy for port forwarding would be the mailing system in an apartment complex where everyone shares the common physical address and gets broken down to individual rooms or \"ports.\"\n\nThere are risks associated with forwarding ports as you expose the host device (i.e., the device hosting the server or application) to the public internet. You may also risk violating your Internet Service Provider's Terms of Service / Acceptable Use Policy if you host a server on a consumer connection.\n\nTo port forward on your router, you will need to have access to your router's admin interface or admin console. For instructions on how to configure port forwarding, check the manual that came with your router or search for it online from the manufacturer.",
    "desc": "",
    "aliases": []
  },
  "PORTCLOSED": {
    "name": "Why are my ports showing as closed?",
    "text": "\nPort checking sites and tools may show your ports as closed, despite your port forwarding on your router and doing it correctly.  This is due to a few potential items. The three common reasons are:\n\n**1.** The sites and tools require something listening, such as a webserver, to accept a connection; otherwise, they don't know if something is open.\n**2.** Your ISP, their/your networking gear, or a firewall prevents incoming connections to the device or your network.\n**3.** The forwarding configuration is done incorrectly or has a mistake.\n\n#1 and #3 are easier to solve as it is a minor issue, while #2 will require more of an in-depth look or a call to your ISP, in which case, it is a good idea to check their Terms of Service / Acceptable Use Policy. ",
    "desc": "",
    "aliases": ["closedport"]
  },
  "MEMTEST": {
    "name": "How to test memory for instability and unreliability.",
    "text": "\nMemtest86 is the go-to tool for diagnosing memory issues and testing memory overclock stability. It can better find issues compared to in-Operating-System memory testers or Windows Memory Diagnostic, which both can report false negatives.\n\nTo use MemTest86, download the software from `memtest86.com` and use the `imageUSB.exe` program to create a bootable USB device with MemTest86. For instructions on how to make the USB, read the `readme.txt` file for step-by-step instructions.\n\nAfter the bootable USB is created, boot to it through your system's BIOS. This will load the tool and present you with a screen to either configure the test or to wait and let it automatically start. Let it automatically start. If it does not start and takes you to the configuration menu, press the `Start Test` button on the left side of the screen.\n\n**The test will take one to multiple hours depending on the speed of the system and the amount of memory you have**\n\nWhen the test finishes or reports any errors, send a screenshot of the results to the people providing help.",
    "desc": "",
    "aliases": ["memtest86"]
  },
  "TEMPS": {
    "name": "What are safe temperatures and how can I lower them?",
    "text": "You will have a multitude of thermal sensors within your system.  For most components in your system, a maximum temperature under **full load** should be less than or equal to 85C. Temperatures at an idle or low system load can fluctuate greatly, will be affected more by ambient temperatures, and are higher than expected due to a lower fan speed on many default profile to decrease noise at low loads.\n\nThere are some exceptions to this, such as hard drives, which typically have a max operational temperature of 60-65C or VRMs (Voltage Regulator Modules) on the motherboard, exceeding 100C without issue. There are instances where going past the max recommended or reliability temperature is expected or acceptable such as NVMe SSD controllers or laptops, where cooling performance is limited. In cases like this, the absolute upper limit would be 95C before taking action.\n\nIf you have a sensor reporting an abnormally high temperature in a piece of software, double-check the reading using another piece of software. Such software includes HWiNFO or software designed by the manufacturer of the afflicted component.\n\nIf you wish to reduce your thermals, you can increase the fan speed(s) to cool components, reduce the ambient air temperature or increase airflow around the system, or upgrade the cooler on an afflicted part.",
    "desc": "",
    "aliases": ["thermals"]
  },
  "SUPPORTDENY": {
    "name": "What is grounds for denial of support in the support channels?",
    "text": "Support can and will be denied for any software or system that violate server rules, such as Rule #9, or support channel rules. Examples of violations include illegitimate software and licenses, grey-market, pirated content, unreleased, or unsupported software and hardware.  We also do not support LTSC versions of Windows.\n\nSupport for work and school devices will be redirected to the school or workplace's IT department or support team.\n\nIssues involving passwords will also be denied, as we are unable to verify ownership of the account or system in question.\n\nIssues involving out of date operating systems that are past end of life or support, including Windows 7 and 8, will also be denied support.\n\nIf you are being uncooperative or rude to those helping, you may loose support.",
    "desc": "",
    "aliases": ["denysupport","tsdeny"]
  },
  "MANUAL": {
    "name": "Where can I find my manual?",
    "text": "You can find your manual online by searching for the model number of the device or part and going to the support page. The manual will be under the download section for most companies.\nYou can also find the manual by searching the model number, followed by 'manual.'",
    "desc": "",
    "aliases": []
  },
  "WINDOWSLEGIT": {
    "name": "Where can I get a legitimate copy of Windows?",
    "text": "You can purchase or receive a legitimate license for Windows from Microsoft directly, a retail store such as Best Buy, Amazon, NewEgg, or you can check with your local college or university.\n\nSites selling the keys at a low price are typically grey market sites selling keys belonging to a company, are stolen, or are counterfeit. These can be deactivated when the key is reported as stolen.\n\nYou are able to use Windows 10 unactivated with no limitations except a faint watermark and limited personalization.",
    "desc": "",
    "aliases": ["legitwindows"]
  },
  "REGISTRY": {
    "name": "Do not touch the registry!",
    "text": "Do not touch the Windows Registry or try any modifications suggested to \"increase performance\" or change, add, or remove keys to change something on your OS. Changing values in the registry can cause undesired consequences and cause issues with the Windows operating system.\n\nMicrosoft also recommends to not use any registry cleaners and that the suggested solution: <http://support.microsoft.com/kb/2563254>.\n\nTL;DR Do not touch the registry",
    "desc": "",
    "aliases": []
  },
  "BESTHELPEXAMPLE": {
    "name": "Example of details when asking for help:",
    "text": "I am having an issue with my PC crashing randomly. My parts are:\nR7-5800X\nASRock X570 Taichi Razer Edition\n16gb of DDR4-3200\nMSI 1080ti\nSeasonic Gold 750w PSU and a 512GB 970 pro\nI am running windows 10 2004. This has been happening for the past few weeks and occurs about every few hours. I don't have any error codes when my pc crashes, but sometimes my games throw errors. I currently have my memory at 3200 Mhz using XMP.",
    "desc": "",
    "aliases": ["bhe","bhexample"]
  },
  "NETWORKEXAMPLE": {
    "name": "Example of details when asking for help with networking issues:",
    "text": "**Preferably, have all these details in a SINGLE message**\n\nI am having an issue with my PC having slow download speeds. My parts are:\nr5 3600, ASRock X570 Phantom Gaming X, 16gb of DDR4-3200, MSI 1080ti, Seasonic Gold 750w PSU, and a 512GB 970 pro.\nI am connected with an ethernet cable to my internet.\nI am using a Netgear R700 as my router, a tp-link powerline adapter. N\nNo other devices are seeing this issue, and I don't get any errors, and it happens on any app on my pc.\nI am using Verizon FIOS and their included gateway (insert model number here). This issue happens throughout the day and has been happening for months. I have tried rebooting my networking stuff and reseating the cable, and I am out of ideas.",
    "desc": "",
    "aliases": ["nhe","nhexample"]
  },
  "QVL": {
    "name": "What is the QVL?",
    "text": "The QVL, or Qualified Vendors List, is a list of components tested by the manufacturer of the product and is guaranteed by them that it will work. This list is often associated with memory on motherboards for memory that will be guaranteed to reach the full speed on the board. This does not mean that memory, not on the list, won't work or won't go to the full speed under XMP. It just means that it hasn't been tested; thus, it is not guaranteed to work entirely on the board.\n\nThe QVL is found on your motherboard's support page.\n",
    "desc": "",
    "aliases": ["qualifiedvendorslist"]
  },
  "ROLEPING": {
    "name": "You volunteered to be pinged!",
    "text": "Please do not spam or create additional traffic in the channel as a result of being pinged in any situation. This pushes the channel away from its purpose of providing support by derailing the channel with unnecessary messages.\n\nThe helper roles are opt-in and can be pinged by anyone. If you no longer wish to be pinged by the role, head over to <#537354814665785355> and click on the respective reaction to remove the role.\n",
    "desc": "",
    "aliases": []
  },
  "CAT": {
    "name": "What are the \"CAT\" ratings on ethernet cables?",
    "text": "CAT Cable ratings, such as Cat5e, Cat6/a, Cat7, and Cat 8, are used to signify the resilience to interference, quality, and a maximum bandwidth over a distance of an ethernet cable.\nIn short summary:\nCat5 - 100 mbps over 100 meters.\nCat5e - 1 gbps over 100 meters.\nCat6 - 10 gbps over 55 meters.\nCat6a - 10 gbps over 100 meters.\nCat7 - 10 gbps over 100 meters.  This is not a ratified standard and quality and performance will differ and shouldn't be used.\nCat8 - 25-40gbps over 100 meters.\n\nThe biggest difference between Cat 5e and 6 are the individual twisted pairs are often shielded with foil. Cat 6a and 7 are similar in that the cable is shielded and foiled even more. Cat 7 to 8 is also more shielding overall using foil and braids.\n\nOverall, for your home network, you do not need more than Cat 5e or Cat 6a. Anything higher is generally going to be more costly than worthwhile with no real gains.\n",
    "desc": "",
    "aliases": ["ethcable"]
  },
  "DRIVERUPDATER": {
    "name": "Dp not use third party tools for drivers!",
    "text": "Do not use third party driver updaters, downloaders, verifiers, or management tools. They can potentially contain malware, spyware, or adware, along with additional software you do not need or want to be installed. They also run the risk of modifying the drivers before being installed and/or being out of date\n\nOnly install drivers from the manufacturer of the component or system such as Asus, Intel, Realtek, Nvidia, AMD, Biostar, etc.\n",
    "desc": "",
    "aliases": []
  },
  "HOWTOCOUNTTOSIX": {
    "name": "Yes, we actually had to make a command for this.",
    "text": "First, you start off with the number one(1), then two(2), three(3), four(4), five(5), and best of all, six(6)!\n",
    "desc": "",
    "aliases": [],
    "attribs": ["hidden"]
  },
  "VALUE": {
    "name": "Actually contribute to the support",
    "text": "Make sure to try to add value to this channel.",
    "desc": "",
    "aliases": [],
    "attribs": ["hidden"]
  },
  "USERBENCHMARK": {
    "name": "Do not use UserBenchMark!",
    "text": "Do not use UserBenchMark (UBM) for benchmarking or comparing hardware components. UBM provides biased results in their comparisons and uses old, false sayings as part of their scoring. The site also has a bias towards Intel and Nvidia components. Popular subreddits such as r/Intel, r/Hardware, and r/AMD have banned the site as a result of the mistrust and bias.\n\nWe prefer to use proper review sites and benchmarks such as Cinebench R20 for CPU performance and 3DMark's TimeSpy, a free demo is available on Steam, for easy system performance comparison.\n\nFor more information regarding why not to use UBM, visit\n<https://ownsnap.com/userbenchmark-is-not-trusted-by-tech-enthusiasts-find-out-why-this-huge-website-has-a-zero-credibility-in-tech-community/>\n",
    "desc": "",
    "aliases": ["ubm"]
  },
  "PAPERCLIP": {
    "name": "PAPERCLIP",
    "text": "The paperclip test is used to force a power supply to turn on through the same method that the motherboard does. This is done by bridging the PS_ON terminal to a ground terminal in the ATX 24 Pin connector (See diagram below). Some power supplies require having some form of load on the power supply, such as a fan to power on. Corsair also has a tutorial on how to conduct this at <https://youtu.be/5FWXgQSokF4> .\n<http://acidx.net/wordpress/wp-content/uploads/2011/12/psu_test_006.jpg>",
    "desc": "",
    "aliases": ["clippy"]
  },
  "BUILDASK": {
    "name": "What details should I provide for build recommendations?",
    "text": "When you are asking for a build recommendation, it is critical to include\n \\* Your budget, currency, and country\n \\* The purpose of the build such as gaming, video editing, research, office productivity, etc\n \\* -- Be sure to include specifics such as the games or software used\n \\* When you plan on purchasing the system\n \\* Be sure to include if you need peripherals, monitors, and/or wifi connectivity.\n ",
    "desc": "",
    "aliases": ["buildhelp"]
  },
  "DRAMSSD": {
    "name": "Why does DRAM matter in an SSD?",
    "text": "TL;DR - Use SSDs with DRAM and don't use ones without it. DRAM on an SSD helps reduce extra writes from background management on the SSD, improving lifespan and initial write performance.\n\nDRAM in SSDs serves as a location for the SSD to store the data map of where everything is located on the SSD and serves as a cache for data being written to the drive. This data regularly will change as the SSD shuffles the data around to help prevent a cell of flash from wearing out ahead of the other cells.  When there is no DRAM on the SSD, also referred to as DRAM-less SSDs, the data map is stored in system memory or stored on the actual flash cells, which reduces the overall performance of the SSD. If the data map is stored on the flash cells itself, it can wear out the SSD even faster, and thus reduce the life span of the SSD overall.\n\nIn NVMe drives, DRAM vs. DRAM-less does not have a relevant impact on performance due to the higher operational speed of NVMe as a while. There is still the same concern regarding extra write wear from the data map and caching to the flash cells.\n ",
    "desc": "",
    "aliases": ["ssddram"]
  },
  "HIGHMONITOR": {
    "name": "How do I set my monitor to a higher refresh rate?",
    "text": "You may have a high refresh rate monitor such as a 120, 144, or 240 Hz monitor, and it is showing as 60 Hz. This is a default setting to make sure your monitor is able to output during the first connections. For the monitor to display the higher refresh rate, specific criteria need to be met. The monitor, display interface on the monitor, the display cable, the display interface on the computer all need to support the higher refresh rate at the monitor's resolution.\n\nSome monitors only support the higher refresh rate over a specific interface, which can be determined in the monitor's manual.\n\nAfter determining that each part of the link supports the resolution and refresh rate, go into Nvidia Control Panel, AMD Catalyst Control Center, Windows Display Settings, or Display Adapter Settings to set the monitor to the correct refresh rate and resolution.\n\nIf the monitor is still unable to be set to the correct resolution and refresh rate, include your monitor's model number, GPU, which specific cable is used, any adapters used, and what has been done to set the resolution.\n",
    "desc": "",
    "aliases": ["monitorhz","monitorgobrr"]
  },
  "SPEEDTEST": {
    "name": "How do I interpret a speedtest?",
    "text": "A speed test can be used to determine basic statistics about an internet connection from a device. Speedtest.net, Google's speed test, and fast.net are some of the available options to do a speed test. Each one will return the latency (ms), download speed (Mbit/s), and upload speed(Mbit/s) between you and their server.\n\nLatency measures the time a connection takes to go from your device to the speed test server and back.\nThe download measures the speed of the connection from their server to your device.\nThe upload is the opposite, going from your device to their server.\n\nThe results can be affected by many things, such as your local network connection and the type of service you have to your home.\n",
    "desc": "",
    "aliases": ["networkgobrr","bitbyte"]
  },
  "LGA1151": {
    "name": "Why are there two LGA1151 socket types?",
    "text": "LGA1151 has two different socket versions. LGA1151v1 and LGA1151v2.\n\n LGA1151v1 is for Skylake (6th Gen) and Kabylake (7th Gen)  processors and is found with 100 and 200 series motherboards.\n\n LGA1151v2 is for Coffeelake (8th Gen) and Coffeelake Refresh (9th Gen)  processors.\n\nYou can use  LGA1151v1 processors on  LGA1151v1 sockets and  LGA1151v2 processors on  LGA1151v2 sockets, but not LGA1151v1 on  LGA1151v2 or vice versa.\n",
    "desc": "",
    "aliases": []
  },
  "RYZENMOBO": {
    "name": "Ryzen Motherboard Compatability",
    "text": "Current Ryzen processors (1st - 5th gen) are able to be used across current motherboards with the appropriate bios. Older processors are able to work on newer motherboards without issue.\n\nNewer processors on older boards, however, require newer bios. If the motherboard **box** reports the motherboard as \"Ryzen 3000 Ready\" or is a board designed for Ryzen 3000 such as X570 boards, then the motherboard is good to go. If this is not the case, you will need to manually flash the bios, which some motherboards support without a CPU. If a CPU is required, you can contact AMD for a loaner CPU to update the bios at <https://www.amd.com/en/support/kb/faq/pa-100#faq-Short-Term-Processor-Loan-Boot-Kit>.\n",
    "desc": "",
    "aliases": []
  },
  "MONITORHELP": {
    "name": "What should you provide when asking for monitor recommendations?",
    "text": "When asking for monitor suggestions, you need to provide:\n \\* Your budget, currency, and country\n \\* The purpose of the monitor such as gaming, video editing, office productivity, etc\n \\* Your preferred resolution and refresh rate\n \\* Your CPU and GPU\n \\* When you plan on purchasing the monitor\n",
    "desc": "",
    "aliases": ["monhelp"]
  },
  "XMPFIX": {
    "name": "XMPFIX",
    "text": "If your XMP or DOCP profile is unstable, there are a few things that can be done to help improve stability.\n\\* Make sure your memory sticks are in the correct slots on your motherboard, as defined in the motherboard manual.\n\\* Make sure your BIOS is up to date\n\\* If all else fails, you will need to manually overclock your memory or use a lower speed profile or JEDEC\n\nEven if your system never had issues in the past, you will be asked to remove these profiles during the troubleshooting process to remove potential places to introduce the instability.",
    "desc": "",
    "aliases": []
  },
  "ANSWERBOT": {
    "name": "ANSWER ME!",
    "text": "When you ask for help, it is critical to provide the necessary details to receive the quickest and most immediate assistance. <@630852264780890135> provides a list of details to provide for a variety of issues.\nIf you ping the **`Techies`** role, then be sure to include the details asked by <@630852264780890135>.\n",
    "image": "https://gitlab.com/pcmasterrace/discord/pcmr-discord-bot-commands/-/raw/master/command_images/plsanswer1.gif",
    "aliases": ["answerme","givedetails"]
  },
  "REVIEWS": {
    "name": "How to trust reviews.",
    "text": "When you are looking at benchmarks and reviews of various products and components, it is critical to use reviews from reputable sources.  Some things to look for is a clear testing methodology, the use of multiple samples to build a reliable dataset, and that the testing is completed in a consistent manner. When the testing and reviewing is not done correctly, the results, and potentially the review, can become skewed or biased.\n",
    "desc": "",
    "aliases": ["review"]
  },
  "SWAP": {
    "name": "What is the pagefile/swapspace?",
    "text": "Swap space, or the pagefile, is a space used by the system to expand into when the system memory is needed for a more present task. When your system begins to run out of memory to the current task, it moves the content of idle tasks into this space to free up the faster memory. If the active application needs more memory than available, it can also spill over into the swap space, which can affect the application's performance.\n\nIn Windows, the amount of storage space in use for swap is the total capacity of system memory subtracted from 'Committed' memory in task manager.",
    "desc": "",
    "aliases": ["pagefile"]
  },
  "RAID": {
    "name": "What is RAID?",
    "text": "RAID (Redundant Array of Independent Drives) is used to create a single volume from multiple drives, commonly for redundancy **, not backup**, reasons. The exception being RAID Level 0 which merges the drives into a single volume, but runs a higher risk of **full** data loss. This is due to the data being striped across the drives; thus, a single drive failure results in the data on all drives is useless and gone.\n\nIt is recommended that consumers avoid the use of RAID as a whole due to the complexity and management of the array(s).\n\n**RAID is not a backup!**",
    "desc": "",
    "aliases": ["raidgoboom"]
  },
  "FIRSTDRIVERS": {
    "name": "What drivers do I need to download?",
    "text": "With a new system, a few drivers need to be installed.\nThe following drivers are downloaded from your motherboard's support page: `Audio,` `LAN/Wifi`\n\nGPU Drivers are retrieved from Nvidia, AMD, or Intel's website. With Nvidia, use the 'Game-Ready Driver' unless you are doing productivity work.\n\nOn AMD Ryzen and Threadripper systems, you will need to install the chipset drivers from <https://www.amd.com/en/products/chipsets-motherboards-desktop>.",
    "desc": "",
    "aliases": []
  },
  "PSUTIER": {
    "name": "What is the PSU Tier List?",
    "text": "When you are choosing a PSU, it recommended getting one that has approximately 50 watts more than your system will draw under max load.\n\nThe PSU Tier List is a guide that rates power supplies on their build quality and reliability. A bad power supply can cause multiple issues down the line ranging from instability to complete failure.\n\nThe tier list can be found at <https://linustechtips.com/main/topic/1116640-psucultists-psu-tier-list/> with a more detailed version at <https://bit.ly/PSUComparisonList>.",
    "desc": "",
    "aliases": ["psutierlist"]
  },
  "SLI": {
    "name": "What is SLI?",
    "text": "In recent years, SLI support has been dropped from games and applications in favor of cost savings in-licensing and development time. It has become more practical to use a single, more powerful GPU over multiple weaker GPUs linked together. The last game to support SLI was released in October of 2016 as a result.\n\nMulti GPU, not SLI or NVLink, is commonly used in rendering tasks for 3D work and production environments, where tasks are easier to split up and assign to multiple rendering devices. ",
    "desc": "",
    "aliases": []
  },
  "OFFTOPIC": {
    "name": "**Keep the support channels ON TOPIC!**",
    "text": "Please keep memes and non issue or build help related content out of the channel. Trolling and feigning idiocy is forbidden and can result in being removed from the support channels, server muted, or banned.\n\nIf you would like to go offtopic, take it to <#96037009314836480>, <#77710284621357056>, or into DMs.",
    "desc": "",
    "aliases": ["byoshush","topic"]
  },
  "SMNORMAL": {
    "name": "How do I get to safe mode in a normal situation?",
    "text": "To boot Windows 8 and 10 into safe mode,  go into the start menu, click the power icon, hold shift and keep holding it, and then click restart.\n\\* If you can only access the login screen, this process can be done using the restart button in the bottom right of the screen.\n You will arrive at a blue screen with multiple options. Click on \"Troubleshoot,\" \"Advanced Options,\" \"Startup Settings,\" and click on \"Restart.\"\n\nFor further instructions, see <https://support.microsoft.com/en-us/help/12376/windows-10-start-your-pc-in-safe-mode>.\n",
    "desc": "",
    "aliases": ["smn","safemodenormal"]
  },
  "SMFAIL": {
    "name": "How do I get to safe mode in a dire situation?",
    "text": "If you are unable to boot into Windows 10 and need to access safe mode, you can force Windows into the recovery process by tricking it into thinking it is unable to boot further.\nThis is done by killing power to the system after the OS has started booting, but before the login screen. This process is repeated 3-5 times in succession to force Windows to prompt you to the boot failure menu.\nYou will arrive at a blue screen with multiple options. Click on \"Troubleshoot,\" \"Advanced Options,\" \"Startup Settings,\" and click on \"Restart.\"\n\nFor further instructions, see <https://support.microsoft.com/en-us/help/12376/windows-10-start-your-pc-in-safe-mode>.\n",
    "desc": "",
    "aliases": ["safemodefail","smf"]
  },
  "BREADBOARD": {
    "name": "What is breadboarding?",
    "text": "Breadboarding is the process of bringing a system to its core components to aid in the troubleshooting process and eliminate any unneeded variables.\n\nA quick summary of the steps is removing everything out of the case and placing the motherboard on a non-conductive, clean surface and only connecting things essential for display output.\n**NOTE**: Some anti-static bags are conductive on the outside. **Do not** use these bags as a surface for components.\n\nThe full instructions for breadboarding are found at <https://forums.whatthetech.com/index.php?showtopic=120814>.\n",
    "desc": "",
    "aliases": []
  },
  "CMRSMR": {
    "name": "What is the deal with CMR and SMR?",
    "text": "\nThe differences in Shingled Magnetic Recording (SMR) and Conventional Magnetic Recording (CMR) are associated primarily with use and latency.\nSMR has the tracks similar to roofing shingles to increase density, but due to the size of the Read-Write head, data must first be read from next to where the data is about to be written due to the layout of the tracks.\nCMR, on the other hand, is the standard flat track design thought of for HDDs.\nAs a result of how SMR is managed, it performs worse on data that is constantly being written to randomly, resulting in worse performance on the random writes. This is an issue with storage arrays where storage is consistently being written and shifted around but is not an issue in more mundane or archival purposes. In common consumer use cases, such as office work and gaming, this is **not** an issue.\n",
    "desc": "",
    "aliases": ["smrcmr"]
  },
  "DRIVECLONE": {
    "name": "How do you clone a drive?",
    "text": "\nYou are able to clone drives to migrate operating systems using various software such as Macrium's Reflect <https://www.macrium.com/reflectfree>. The basic requirements of cloning are that the drive being cloned to is of equal or greater size to the drive being cloned from.\nThere are occassionally **issues** when you clone from a **hard drive to a solid-state drive**, typically caused by the differing block sizes, the blocks that are written to as data is stored. These issues are typically boot failures to the destination drive as the most common, followed by operating system stability issues being the following.\n\nThe instructions to clone a drive using macrium are found at <https://knowledgebase.macrium.com/display/KNOW7/Cloning+a+disk>.\n",
    "desc": "",
    "aliases": ["clonedrive","clone"]
  },
  "BESTBUYSTOCK": {
    "name": "Why is PCPP having issues with Best Buy?",
    "text": "PCPartPicker is currently not able to get in-stock status for items at Best Buy. Several items are currently out of stock at Best Buy and as a result, leads to inaccurate pricing info. Please look into the individual item in question at Best Buy's website before adding it to your list.\n",
    "desc": "",
    "aliases": []
  },
  "CPUBOOST": {
    "name": "What is turbo boosting?",
    "text": "With processors, there are two general frequency specifications, base frequency and turbo or boost frequency. Base frequency, the normal maximum operating frequency of the cores in the processor, while the turbo frequency is the maximum speed of one or two cores under ideal conditions.\n\nWhat this means is that the processor will only go to the maximum frequency if there is a workload that uses only one or two cores, depending on the processor, and if certain factors are met. Those factors include:\n * Overall cooling performance for the CPU and system\n * Available power to the system\n * Motherboard design\n * BIOS settings and version\n * The operating system\n * AMD Chipset Driver (For AMD Processors)\n\nOverall, you are not loosing performance or dropping frames because you are not reaching the boost frequency. It is there to help when possible for tasks that need that extra performance on one or two cores. In many modern loads like games or rendering, the performance \"gains\" come from running the load across multiple cores, not because it has a higher frequency.\n",
    "desc": "",
    "aliases": ["turboboost","cpugobrr"]
  },
  "NOBENCHMARKS": {
    "name": "We don't have benchmarks yet for 'x'!",
    "text": "https://gitlab.com/pcmasterrace/discord/pcmr-discord-bot-commands/-/raw/master/command_images/nobenchmarks.gif",
    "desc": "",
    "aliases": [],
    "attribs": ["noembed"]
  },
  "STOPSPECULATING": {
    "name": "STOP SPECULATING!",
    "text": "https://gitlab.com/pcmasterrace/discord/pcmr-discord-bot-commands/-/raw/master/command_images/spec.gif",
    "desc": "",
    "aliases": [],
    "attribs": ["noembed"]
  },
  "IDLETEMP": {
    "name": "Are my idle temperatures ok?",
    "text": "The idle temperature of your components does not matter. Unless your idle temps are regularly above 70C, stop worrying!",
    "desc": "",
    "aliases": ["idletemps"]
  },
  "NOCOOP": {
    "name": ":wave: You are not cooperating.",
    "text": "We have offered you help that we think is best. We are sorry if you are not satisfied or agree with our advice. Do not continue to ask the same question now that we've helped you. Thanks!",
    "desc": "",
    "aliases": ["badboy","badgirl","ffs","dammitbench","sped"],
    "attribs": ["hidden"]
  },
  "SINGLEMESSAGE": {
    "name": "Please treat your return key with respect!",
    "text": "Please type out your messages, descriptions, or issues as a single message please. This makes it much easier to read the chat and will prevent you from automatically being muted by me for linespamming.",
    "desc": "",
    "aliases": ["spam","angybot","linespam"]
  },
  "TSQUIET": {
    "name": "What is TSQuiet?",
    "text": "TSQuiet is a role given to individual who disrupt any of the support channels. This can range from out right trolling, going offtopic, providing poor or harmful support, and more. Those with this role are not able to access the support channels, pretty much most channels in the 'general' category but main, hardware-discussion, and battlestations.\n\n This role is typically permanent due to the rarity of individuals to prove they can behave in the support channels after the role is removed. If you have this role and would like it removed, how you act in other channels, modmail, and in general will contribute to the possibility of restoring access to those channels. If you behave and show good character, then your access will likely be restored under certain conditions. If you start complaining in channels, asking for it to be removed, or spam modmail, the role will not be removed and may transition into a full server mute.",
    "desc": "",
    "aliases": ["tsq","byoangy"],
    "attribs": ["hidden"]
  },
  "DMSUPPORT": {
    "name": ":moneybag: Current direct message support rates.",
    "text": "Due to the one-on-one nature of DM support, we charge a rate of `$200 per hour` with a minimum of `2 hours`.",
    "desc": "",
    "aliases": [],
    "attribs": []
  },
  "NETRESET": {
    "name": "Reseting the Windows Network Stack",
    "text": "In an admin command prompt or admin powershell window, run the following:```powershell\nnetsh winsock reset\nnetsh int ip reset\nipconfig /release\nipconfig /renew\nipconfig /flushdns\n```\n\nTo start an admin command prompt, press WindowsKey+R and enter `cmd`. Press Ctrl+Shift+Enter and it will start it in admin mode. To open an admin powershell window, replace `cmd` with `powershell`",
    "desc": "",
    "aliases": ["resetnet"],
    "attribs": []
  },
  "ADMINCMD": {
    "name": "How to open an admin powershell or command prompt window.",
    "text": "To start an admin command prompt, press WindowsKey+R and enter `cmd`. Press Ctrl+Shift+Enter and it will start it in admin mode. To open an admin powershell window, replace `cmd` with `powershell`",
    "desc": "",
    "aliases": ["adminpowershell","powershelladmin","cmdadmin"],
    "attribs": []
  },
  "NOANSWER": {
    "name": ":person_facepalming: You have decided to not answer questions",
    "text": "Because you have decided that you are not going to answer basic diagnostic questions, we will decide to not assist further.  If you change your mind, please make sure to answer questions already asked.",
    "desc": "",
    "aliases": ["noans"],
    "image": "https://gitlab.com/pcmasterrace/discord/pcmr-discord-bot-commands/-/raw/master/command_images/plsanswer1.gif",
    "attribs": []
  },
  "distros" : {
    "name": "Good beginner linux distros",
    "text": "Good linux beginner distros:\n- [Fedora](https://getfedora.org/)\n- [Opensuse](https://www.opensuse.org/)\n- [PopOS](https://pop.system76.com/)\n- [KDE Neon](https://neon.kde.org/download)",
    "aliases": ["distro"],
    "image": "",
    "attribs": []
  },
  "WINDOWSRESET": {
    "name": "Reseting Windows is **NOT** the same as a reinstall.",
    "text": "Resets are not a full reinstall of the system and can lead to a broken OS.\nType '?reinstallwindows' for instructions on doing a proper clean install.",
    "desc": "",
    "aliases": ["reset"],
    "attribs": []
  },
  "PINS": {
    "name": "Please check the channel's pinned messages!",
    "text": "Refer to the pinned messages of this channel for more info on the same.\n\nHow to reach pinned messages?\n- PC: Click on the pin icon located in the top-right end of the channel.\n- Mobile: Swipe left and tap on Pins.",
    "aliases": ["checkpin","checkpins","pinned"]
  },
  "OTHERHELP": {
    "name": "If you would like other help:",
    "text": "If you would like to try support elsewhere, you may head over to r/TechSupport's discord server at https://discord.gg/bkpRX6dg",
    "desc": "",
    "aliases": ["rts","helpelsewhere"],
    "image": "https://cdn.discordapp.com/icons/749314018837135390/996bab2ce933197d1657a9fec83021e7.png",
    "attribs": ["hidden"]
  },
  "REDIRECTBUILDHELP": {
    "name": "Looking for help with selecting computer part(s)? **Try asking in #build-help or #hardware-discussion**",
    "text": "**Hey, your question can be answered better in <#497150397358800908>**, as it is for selecting components, systems, and accessories.\n\nAlso a reminder to please phrase your query with complete specifics of the thing you're looking for, as this might help you and help the one's helping you to get whatever you want faster and more accurately.\n\nThings to look out for while phrasing a query: Budget, Country(for price and availability), preffered Aesthetics(if any) and/or any detail that has significance of purpose or use",
    "aliases": ["gbh","rbh","gobh","gobuild","gotobh","gotobuild","gotobuildhelp","redirectbuild"]
  },
  "REDIRECTTECHSUPPORT": {
    "name": "Looking for technical support? **Try asking in #tech-support**",
    "text": "**Hey, it looks like for that question, you can receive better support in <#96028420848230400>**, as it's for getting help with troubleshooting and fixing stuff related to computers, and networking issues.\n\nAlso a reminder to please phrase your query with complete specifics of what you're dealing with or the issues you have faced so far, as is is providing complete details might help you to get a speedy resolution by helping the one's helping you to understand the situation better, faster and more accurately.\nThings to look out for while phrasing a query:\nMention **the specific item** you are **having trouble with** and **thing's you have tried** to resolve.\n- If its **a pc, then list all the components and OS** (and its version number and/or recent update history), and **overclocks applied**(if any), and if possible, provide **error codes**(BSOD/memory-dumps/crash-logs)\n- For networking or internet issue, list the equipment you are using.\n\nNote: __Have these pieces of information in a single message__ to avoid getting muted for spam",
    "aliases": ["gts","gots","gotech","gotechsupport","gotots","gototech","gototechsupport","redirectts","redirecttech"]
  },
  "WRONG": {
    "name": "Wrong.",
    "text": "Wrong.",
    "image": "https://gitlab.com/pcmasterrace/discord/pcmr-discord-bot-commands/-/raw/master/command_images/wrong.gif",
    "attribs": ["hidden"]
  },
  	"DMPFILE": {
		"name": "What is a .dmp file and where can you find it?",
		"text": "When your Windows crashes, resulting in a BSOD, it will store information about the preceding events of the crash in a DMP file. This contains crucial information such as the afflicted system file, that will help to find the source of the issue.\nTo find this file you must be able to boot into Windows, if you are unable to log into normal mode, try booting into safe mode.\n\nDMP files can be located in `C:\\Windows\\Minidump`\nIf you find more than one DMP file, drag the 3 most recent files (not older than 3 weeks) to your desktop and then upload them to Discord.\nIf you dont find any DMP files in the first location, look for a file called `Memory.dmp` in the root folder of Windows (`C:\\Windows`). If this file is too large, Zip it or upload it to a file sharing service such as OneDrive and share the download link.",
		"aliases": ["dmp", "bsoddump", "dump", "dumpfile"]
	},
	"DMPLOST": {
		"name": "I don't see any folder called Minidumps!",
		"text": "If you dont find `C:\\Windows\\Minidump` it might be because your system has disabled minidumps.\nFor enabling them, type `sysdm.cpl` in Window's search box. Head to the *Advanced* tab, and under *Start-up and Recovery*, click *Settings*. Below *Write debugging information*, open the drop-down list and select *Small memory dump (256 KB)*. It should change the *Small dump directory* below it to `%SystemRoot%\\Minidump`\n\nIf that doesn't work, look for a file called `Memory.dmp` in the root folder of Windows (`C:\\Windows`). If this file is too large, Zip it or upload it to a file sharing service such as OneDrive and share the download link.\n\n**Malfunctioning RAM can prevent the system from creating DMP files**",
		"aliases": ["dumplost", "dmpmissing", "nodump", "nodmp"]
	},
  	"COMMONSENSE": {
		"name": "What is Common Sense?",
		"text": "Common Sense is sound logic with practical and good reasoning. It is searching for simple but very useful ways of making decisions to solve problems. We are all born with the ability to think, create, and solve problems. \nCommon sense lives by the rule of thinking before you act. It helps us to see what can become of something like George Washington Carver did, who saw how practical resources could benefit many people in the world. \nCommon sense is not solely about using our minds to think of cool or witty inventions that will make us lots of money. It is about making wise decisions that affect our lives. When we lack common sense, we make decisions based on emotions rather than logic.",
		"aliases": ["commonsense"]
    },
    	"BATTERY": {
		"name": "What to do with a swollen battery",
		"text": "Removing a swollen battery can be hazardous, but leaving a swollen battery inside a device also poses risks. To prevent potential device and bodily harm, a device should not operate with a swollen battery. The guidelines in the link below offer best practices for removing swollen batteries, but cannot guarantee a safe repair. If you have doubts, power the device down, place it in a fireproof container, take to a repair professional and ask them to remove the faulty battery. Do not delay battery removal. \nhttps://www.ifixit.com/Wiki/What_to_do_with_a_swollen_battery",
		"aliases": ["battery"]
	},
  "SPECCY": {
    "name": "Speccy",
    "text": "**1. Download Speccy from the following link:**\nhttps://www.ccleaner.com/speccy/download/standard\n\n**2. Run Speccy & share the URL:**\nClick `File` -> `Publish Snapshot` and paste the link in this channel.\n\nYou should share a URL. Do not share a file or screenshot."
  },
  "WUCLEAR": {
    "name": "WinUpdateClear",
    "text": "1. Open CMD as administrator\n2. Type `net stop wuauserv`\n3. Type either `cd /d %windir%` or `cd\\windows`\n4. Type `rd /s SoftwareDistribution`\n5. Then type in `net start wuauserv`"
  }
}
